Joining in Relational Data Models
…
Joining Examples

Let’s look at some examples:

Add a column with airline names from the airlines table to the flights table.

dm_joined <- dm %>% 
  dm_join_to_tbl(flights, airlines, join = left_join)
dm_joined

#> # A tibble: 11,227 x 20
#>     year month   day dep_time sched_dep_time dep_delay arr_time
#>    <int> <int> <int>    <int>          <int>     <dbl>    <int>
#>  1  2013     1    10        3           2359         4      426
#>  2  2013     1    10       16           2359        17      447
#>  3  2013     1    10      450            500       -10      634
#>  4  2013     1    10      520            525        -5      813
#>  5  2013     1    10      530            530         0      824
#>  6  2013     1    10      531            540        -9      832
#>  7  2013     1    10      535            540        -5     1015
#>  8  2013     1    10      546            600       -14      645
#>  9  2013     1    10      549            600       -11      652
#> 10  2013     1    10      550            600       -10      649
#> # … with 11,217 more rows, and 13 more variables: sched_arr_time <int>,
#> #   arr_delay <dbl>, carrier <chr>, flight <int>, tailnum <chr>,
#> #   origin <chr>, dest <chr>, air_time <dbl>, distance <dbl>, hour <dbl>,
#> #   minute <dbl>, time_hour <dttm>, name <chr>
…
An example with filtering on a dm and then merging:

Get all flights from Delta Air Lines which didn’t depart from John F. Kennedy International Airport in May 2013 - and join all the airports data into the flights table.

Currently, it is important to call dm_apply_filters() after piping your conditions. Only then the underlying tables and key relations are updated and you can perform a join on the filtered data. We are working towards removing this inconvenience #62.

dm_nycflights13() %>%
  dm_filter(airlines, name == "Delta Air Lines Inc.") %>%
  dm_filter(flights, month == 5) %>% 
  dm_apply_filters() %>% 
  dm_join_to_tbl(flights, airports, join = left_join)

#> # A tibble: 136 x 26
#>     year month   day dep_time sched_dep_time dep_delay arr_time
#>    <int> <int> <int>    <int>          <int>     <dbl>    <int>
#>  1  2013     5    10      554            600        -6      739
#>  2  2013     5    10      556            600        -4      825
#>  3  2013     5    10      606            610        -4      743
#>  4  2013     5    10      625            630        -5      843
#>  5  2013     5    10      632            635        -3      847
#>  6  2013     5    10      653            700        -7      923
#>  7  2013     5    10      654            700        -6     1001
#>  8  2013     5    10      656            700        -4     1008
#>  9  2013     5    10      656            700        -4      911
#> 10  2013     5    10      657            700        -3     1006
#> # … with 126 more rows, and 19 more variables: sched_arr_time <int>,
#> #   arr_delay <dbl>, carrier <chr>, flight <int>, tailnum <chr>,
#> #   origin <chr>, dest <chr>, air_time <dbl>, distance <dbl>, hour <dbl>,
#> #   minute <dbl>, time_hour <dttm>, name <chr>, lat <dbl>, lon <dbl>,
#> #   alt <dbl>, tz <dbl>, dst <chr>, tzone <chr>

A last example:

Merge all tables into one big table.

Sometimes you need everything in one place. In this case you can use the dm_flatten_to_tbl() function. It joins all the tables of your dm object together into one wide table. All you have to do is to specify the starting table. The following joins are determined by the foreign key links.

dm_nycflights13() %>%
  dm_select_tbl(-weather) %>%
  dm_flatten_to_tbl(start = flights)
#> Renamed columns:
#> * year -> flights$flights.year, planes$planes.year
#> * name -> airlines$airlines.name, airports$airports.name

#> # A tibble: 11,227 x 35
#>    flights.year month   day dep_time sched_dep_time dep_delay arr_time
#>           <int> <int> <int>    <int>          <int>     <dbl>    <int>
#>  1         2013     1    10        3           2359         4      426
#>  2         2013     1    10       16           2359        17      447
#>  3         2013     1    10      450            500       -10      634
#>  4         2013     1    10      520            525        -5      813
#>  5         2013     1    10      530            530         0      824
#>  6         2013     1    10      531            540        -9      832
#>  7         2013     1    10      535            540        -5     1015
#>  8         2013     1    10      546            600       -14      645
#>  9         2013     1    10      549            600       -11      652
#> 10         2013     1    10      550            600       -10      649
#> # … with 11,217 more rows, and 28 more variables: sched_arr_time <int>,
#> #   arr_delay <dbl>, carrier <chr>, flight <int>, tailnum <chr>,
#> #   origin <chr>, dest <chr>, air_time <dbl>, distance <dbl>, hour <dbl>,
#> #   minute <dbl>, time_hour <dttm>, airlines.name <chr>,
#> #   airports.name <chr>, lat <dbl>, lon <dbl>, alt <dbl>, tz <dbl>,
#> #   dst <chr>, tzone <chr>, planes.year <int>, type <chr>,
#> #   manufacturer <chr>, model <chr>, engines <int>, seats <int>,
#> #   speed <int>, engine <chr>
…
