Create a dm object from data frames
…
weather contains meteorological information at each
hour

planes describes characteristics of the aircraft

Once we’ve loaded {nycflights13}, the aforementioned tables are all
in our work environment, ready to be accessed.

library(nycflights13)

airports

#> # A tibble: 1,458 × 8
#>    faa   name                            lat    lon   alt    tz dst   tzone
#>    <chr> <chr>                         <dbl>  <dbl> <dbl> <dbl> <chr> <chr>
#>  1 04G   Lansdowne Airport              41.1  -80.6  1044    -5 A     Amer…
#>  2 06A   Moton Field Municipal Airport  32.5  -85.7   264    -6 A     Amer…
#>  3 06C   Schaumburg Regional            42.0  -88.1   801    -6 A     Amer…
#>  4 06N   Randall Airport                41.4  -74.4   523    -5 A     Amer…
#>  5 09J   Jekyll Island Airport          31.1  -81.4    11    -5 A     Amer…
#>  6 0A9   Elizabethton Municipal Airpo…  36.4  -82.2  1593    -5 A     Amer…
#>  7 0G6   Williams County Airport        41.5  -84.5   730    -5 A     Amer…
#>  8 0G7   Finger Lakes Regional Airport  42.9  -76.8   492    -5 A     Amer…
#>  9 0P2   Shoestring Aviation Airfield   39.8  -76.6  1000    -5 U     Amer…
#> 10 0S9   Jefferson County Intl          48.1 -123.    108    -8 A     Amer…
#> # … with 1,448 more rows
…
dm objects behave like lists with a user- and
console-friendly print format. In fact, using a dm as a nicer list for
organizing your data frames in your environment is an easy first step
towards using dm and its data modeling functionality.

Subsetting syntax for a dm object (either by subscript
or by name) is similar to syntax for lists, and so you don’t need to
learn any additional syntax to work with dm objects.

names(flights_dm_no_keys)
#> [1] "airlines" "airports" "flights"  "planes"   "weather"
flights_dm_no_keys$airports

#> # A tibble: 1,458 × 8
#>    faa   name                            lat    lon   alt    tz dst   tzone
#>    <chr> <chr>                         <dbl>  <dbl> <dbl> <dbl> <chr> <chr>
#>  1 04G   Lansdowne Airport              41.1  -80.6  1044    -5 A     Amer…
#>  2 06A   Moton Field Municipal Airport  32.5  -85.7   264    -6 A     Amer…
#>  3 06C   Schaumburg Regional            42.0  -88.1   801    -6 A     Amer…
#>  4 06N   Randall Airport                41.4  -74.4   523    -5 A     Amer…
#>  5 09J   Jekyll Island Airport          31.1  -81.4    11    -5 A     Amer…
#>  6 0A9   Elizabethton Municipal Airpo…  36.4  -82.2  1593    -5 A     Amer…
#>  7 0G6   Williams County Airport        41.5  -84.5   730    -5 A     Amer…
#>  8 0G7   Finger Lakes Regional Airport  42.9  -76.8   492    -5 A     Amer…
#>  9 0P2   Shoestring Aviation Airfield   39.8  -76.6  1000    -5 U     Amer…
#> 10 0S9   Jefferson County Intl          48.1 -123.    108    -8 A     Amer…
#> # … with 1,448 more rows
…
