Create a dm object from a database
…
Use compute() on a zoomed table to materialize it to a temporary table and avoid recomputing. See vignette("howto-dm-copy") for more details.

Downloading data

When it becomes necessary to move data locally for analysis or reporting, the {dm} method collect() is used. Operations on dm objects for databases are limited to report only the first ten results. collect() forces the evaluation of all SQL queries and the generation of the complete set of results. The resulting tables are transferred from the RDBMS and stored as local tibbles.

my_dm_local <-
  my_dm_total %>%
  collect()

my_dm_local$total_loans

#> # A tibble: 682 x 2
#>    account_id total_amount
#>         <int>        <dbl>
#>  1          2        80952
#>  2         19        30276
#>  3         25        30276
#>  4         37       318480
#>  5         38       110736
#>  6         67       165960
#>  7         97       102876
#>  8        103       265320
#>  9        105       352704
#> 10        110       162576
#> # … with 672 more rows
…
