Joining in relational data models
…
Joining Examples

Let’s look at some examples:

Add a column with airline names from the
airlines table to the flights
table.

dm_joined <-
  dm %>%
  dm_flatten_to_tbl(flights, airlines, join = left_join)
dm_joined

#> # A tibble: 1,761 × 20
#>     year month   day dep_time sched_dep_time dep_delay arr_time
#>    <int> <int> <int>    <int>          <int>     <dbl>    <int>
#>  1  2013     1    10        3           2359         4      426
#>  2  2013     1    10       16           2359        17      447
#>  3  2013     1    10      450            500       -10      634
#>  4  2013     1    10      520            525        -5      813
#>  5  2013     1    10      530            530         0      824
#>  6  2013     1    10      531            540        -9      832
#>  7  2013     1    10      535            540        -5     1015
#>  8  2013     1    10      546            600       -14      645
#>  9  2013     1    10      549            600       -11      652
#> 10  2013     1    10      550            600       -10      649
#> # … with 1,751 more rows, and 13 more variables: sched_arr_time <int>,
#> #   arr_delay <dbl>, carrier <chr>, flight <int>, tailnum <chr>,
#> #   origin <chr>, dest <chr>, air_time <dbl>, distance <dbl>, hour <dbl>,
#> #   minute <dbl>, time_hour <dttm>, name <chr>
…
An example with filtering on a dm and then merging:

Get all flights from Delta Air Lines which didn’t depart from
John F. Kennedy International Airport in May 2013 - and join all the
airports data into the flights table.

dm_nycflights13(subset = FALSE) %>%
  dm_filter(airlines, name == "Delta Air Lines Inc.") %>%
  dm_filter(flights, month == 5) %>%
  dm_flatten_to_tbl(flights, airports, join = left_join)

#> # A tibble: 4,082 × 26
#>     year month   day dep_time sched_dep_time dep_delay arr_time
#>    <int> <int> <int>    <int>          <int>     <dbl>    <int>
#>  1  2013     5     1      554            600        -6      731
#>  2  2013     5     1      555            600        -5      819
#>  3  2013     5     1      603            610        -7      754
#>  4  2013     5     1      622            630        -8      848
#>  5  2013     5     1      634            635        -1      900
#>  6  2013     5     1      654            700        -6      931
#>  7  2013     5     1      655            700        -5      944
#>  8  2013     5     1      656            705        -9     1005
#>  9  2013     5     1      658            700        -2     1016
#> 10  2013     5     1      658            700        -2      925
#> # … with 4,072 more rows, and 19 more variables: sched_arr_time <int>,
#> #   arr_delay <dbl>, carrier <chr>, flight <int>, tailnum <chr>,
#> #   origin <chr>, dest <chr>, air_time <dbl>, distance <dbl>, hour <dbl>,
#> #   minute <dbl>, time_hour <dttm>, name <chr>, lat <dbl>, lon <dbl>,
#> #   alt <dbl>, tz <dbl>, dst <chr>, tzone <chr>
…
dm_nycflights13() %>%
  dm_select_tbl(-weather) %>%
  dm_flatten_to_tbl(start = flights)
#> Renaming ambiguous columns: %>%
#>   dm_rename(flights, flights.year = year) %>%
#>   dm_rename(airlines, airlines.name = name) %>%
#>   dm_rename(airports, airports.name = name) %>%
#>   dm_rename(planes, planes.year = year)

#> # A tibble: 1,761 × 35
#>    flights.year month   day dep_time sched_dep_time dep_delay arr_time
#>           <int> <int> <int>    <int>          <int>     <dbl>    <int>
#>  1         2013     1    10        3           2359         4      426
#>  2         2013     1    10       16           2359        17      447
#>  3         2013     1    10      450            500       -10      634
#>  4         2013     1    10      520            525        -5      813
#>  5         2013     1    10      530            530         0      824
#>  6         2013     1    10      531            540        -9      832
#>  7         2013     1    10      535            540        -5     1015
#>  8         2013     1    10      546            600       -14      645
#>  9         2013     1    10      549            600       -11      652
#> 10         2013     1    10      550            600       -10      649
#> # … with 1,751 more rows, and 28 more variables: sched_arr_time <int>,
#> #   arr_delay <dbl>, carrier <chr>, flight <int>, tailnum <chr>,
#> #   origin <chr>, dest <chr>, air_time <dbl>, distance <dbl>, hour <dbl>,
#> #   minute <dbl>, time_hour <dttm>, airlines.name <chr>,
#> #   airports.name <chr>, lat <dbl>, lon <dbl>, alt <dbl>, tz <dbl>,
#> #   dst <chr>, tzone <chr>, planes.year <int>, type <chr>,
#> #   manufacturer <chr>, model <chr>, engines <int>, seats <int>, …
…
Also, be aware that all column names need to be unique. The
dm_flatten_to_tbl() takes care of this by automatically
renaming the relevant columns and informs the user if any names were
changed,
e.g. dm_rename(airlines, airlines.name = name).

If you want to merge all tables, but get a nested table in return,
use dm_wrap_tbl() with pull_tbl() instead:

dm_nycflights13() %>%
  dm_wrap_tbl(root = flights) %>%
  pull_tbl(flights)

#> # A tibble: 1,761 × 23
#>     year month   day dep_time sched_dep_time dep_delay arr_time
#>    <int> <int> <int>    <int>          <int>     <dbl>    <int>
#>  1  2013     1    10        3           2359         4      426
#>  2  2013     1    10       16           2359        17      447
#>  3  2013     1    10      450            500       -10      634
#>  4  2013     1    10      520            525        -5      813
#>  5  2013     1    10      530            530         0      824
#>  6  2013     1    10      531            540        -9      832
#>  7  2013     1    10      535            540        -5     1015
#>  8  2013     1    10      546            600       -14      645
#>  9  2013     1    10      549            600       -11      652
#> 10  2013     1    10      550            600       -10      649
#> # … with 1,751 more rows, and 16 more variables: sched_arr_time <int>,
#> #   arr_delay <dbl>, carrier <chr>, flight <int>, tailnum <chr>,
#> #   origin <chr>, dest <chr>, air_time <dbl>, distance <dbl>, hour <dbl>,
#> #   minute <dbl>, time_hour <dttm>, airlines <packed[,1]>,
#> #   airports <packed[,7]>, planes <packed[,8]>, weather <packed[,13]>
