Zooming and manipulating tables
…
If you would like to join some or all of the columns of one table to another, you can make use of one of the join-methods for a zoomed_dm. In addition to the usual arguments for the {dplyr}-joins, by supplying the select argument you can specify which columns of the RHS-table you want to be included in the join. For the syntax please see the example below. The LHS-table of a join is always the zoomed table.

joined_flights_dm <-
  flights_dm %>%
  dm_zoom_to(flights) %>%
  # let's first reduce the number of columns of flights
  select(-dep_delay:-arr_delay, -air_time:-time_hour) %>%
  # in the {dm}-method for the joins you can specify which columns you want to add to the zoomed table
  left_join(planes, select = c(tailnum, plane_type = type)) %>%
  dm_insert_zoomed("flights_plane_type")
# this is how the table looks now
joined_flights_dm$flights_plane_type

#> # A tibble: 1,761 x 11
#>     year month   day dep_time sched_dep_time carrier flight tailnum origin
#>    <int> <int> <int>    <int>          <int> <chr>    <int> <chr>   <chr> 
#>  1  2013     1    10        3           2359 B6         727 N571JB  JFK   
#>  2  2013     1    10       16           2359 B6         739 N564JB  JFK   
#>  3  2013     1    10      450            500 US        1117 N171US  EWR   
#>  4  2013     1    10      520            525 UA        1018 N35204  EWR   
#>  5  2013     1    10      530            530 UA         404 N815UA  LGA   
#>  6  2013     1    10      531            540 AA        1141 N5EAAA  JFK   
#>  7  2013     1    10      535            540 B6         725 N784JB  JFK   
#>  8  2013     1    10      546            600 B6         380 N337JB  EWR   
#>  9  2013     1    10      549            600 EV        6055 N19554  LGA   
#> 10  2013     1    10      550            600 US        2114 N740UW  LGA   
#> # … with 1,751 more rows, and 2 more variables: dest <chr>,
#> #   plane_type <chr>
# also here, the FK-relations are transferred to the new table
dm_draw(joined_flights_dm)
#> Error in loadNamespace(x): there is no package called 'DiagrammeRsvg'

Tip: Accessing the zoomed table

At each point you can retrieve the zoomed table by calling pull_tbl() on a zoomed_dm. To use our last example once more:

flights_dm %>%
  dm_zoom_to(flights) %>%
  select(-dep_delay:-arr_delay, -air_time:-time_hour) %>%
  left_join(planes, select = c(tailnum, plane_type = type)) %>%
  pull_tbl()

#> # A tibble: 1,761 x 11
#>     year month   day dep_time sched_dep_time carrier flight tailnum origin
#>    <int> <int> <int>    <int>          <int> <chr>    <int> <chr>   <chr> 
#>  1  2013     1    10        3           2359 B6         727 N571JB  JFK   
#>  2  2013     1    10       16           2359 B6         739 N564JB  JFK   
#>  3  2013     1    10      450            500 US        1117 N171US  EWR   
#>  4  2013     1    10      520            525 UA        1018 N35204  EWR   
#>  5  2013     1    10      530            530 UA         404 N815UA  LGA   
#>  6  2013     1    10      531            540 AA        1141 N5EAAA  JFK   
#>  7  2013     1    10      535            540 B6         725 N784JB  JFK   
#>  8  2013     1    10      546            600 B6         380 N337JB  EWR   
#>  9  2013     1    10      549            600 EV        6055 N19554  LGA   
#> 10  2013     1    10      550            600 US        2114 N740UW  LGA   
#> # … with 1,751 more rows, and 2 more variables: dest <chr>,
#> #   plane_type <chr>
…
